// Jest Snapshot v1, https://goo.gl/fbAQLP

exports[`full mount renders without crashing 1`] = `
<ChapterComponent
  chapter={
    Object {
      "AwhileInRaptAttentionHisEvenWhiteTeethGlisteningHereAndThere": Object {
        "data": Object {
          "233": "Awhile",
          "234": "In",
          "235": "Rapt",
          "236": "Attention",
          "237": "His",
          "238": "Even",
          "239": "White",
          "240": "Teeth",
          "241": "Glistening",
          "242": "Here",
          "243": "And",
          "244": "There",
        },
      },
      "HePeeredSidewaysUpAndGaveALongSlowWhistleOfCallThenPaused": Object {
        "data": Object {
          "219": "He",
          "220": "Peered",
          "221": "Sideways",
          "222": "Up",
          "223": "And",
          "224": "Gave",
          "225": "A",
          "226": "Long",
          "227": "Slow",
          "228": "Whistle",
          "229": "Of",
          "230": "Call",
          "231": "Then",
          "232": "Paused",
        },
      },
      "HeSkippedOffTheGunrestAndLookedGravelyAtHisWatcherGathering": Object {
        "data": Object {
          "273": "He",
          "274": "Skipped",
          "275": "Off",
          "276": "The",
          "277": "Gunrest",
          "278": "And",
          "279": "Looked",
          "280": "Gravely",
          "281": "At",
          "282": "His",
          "283": "Watcher",
          "284": "Gathering",
        },
      },
      "MomentALittleTroubleAboutThoseWhiteCorpusclesSilenceAll": Object {
        "data": Object {
          "209": "Moment",
          "210": "A",
          "211": "Little",
          "212": "Trouble",
          "213": "About",
          "214": "Those",
          "215": "White",
          "216": "Corpuscles",
          "217": "Silence",
          "218": "All",
        },
      },
      "ThanksOldChapHeCriedBrisklyThatWillDoNicelySwitchOff": Object {
        "data": Object {
          "257": "Thanks",
          "258": "Old",
          "259": "Chap",
          "260": "He",
          "261": "Cried",
          "262": "Briskly",
          "263": "That",
          "264": "Will",
          "265": "Do",
          "266": "Nicely",
          "267": "Switch",
          "268": "Off",
        },
      },
      "TheCurrentWillYou": Object {
        "data": Object {
          "269": "The",
          "270": "Current",
          "271": "Will",
          "272": "You",
        },
      },
      "ThroughTheCalm": Object {
        "data": Object {
          "254": "Through",
          "255": "The",
          "256": "Calm",
        },
      },
      "WithGoldPointsChrysostomosTwoStrongShrillWhistlesAnswered": Object {
        "data": Object {
          "245": "With",
          "246": "Gold",
          "247": "Points",
          "248": "Chrysostomos",
          "249": "Two",
          "250": "Strong",
          "251": "Shrill",
          "252": "Whistles",
          "253": "Answered",
        },
      },
    }
  }
  title="just a simple title"
>
  <h2
    data-test="chaptercomponent-title"
  >
    just a simple title
  </h2>
  <div
    key="209210211212213214215216217218"
  >
     
    Moment A Little Trouble About Those White Corpuscles Silence All
     
  </div>
  <div
    key="219220221222223224225226227228229230231232"
  >
     
    He Peered Sideways Up And Gave A Long Slow Whistle Of Call Then Paused
     
  </div>
  <div
    key="233234235236237238239240241242243244"
  >
     
    Awhile In Rapt Attention His Even White Teeth Glistening Here And There
     
  </div>
  <div
    key="245246247248249250251252253"
  >
     
    With Gold Points Chrysostomos Two Strong Shrill Whistles Answered
     
  </div>
  <div
    key="254255256"
  >
     
    Through The Calm
     
  </div>
  <div
    key="257258259260261262263264265266267268"
  >
     
    Thanks Old Chap He Cried Briskly That Will Do Nicely Switch Off
     
  </div>
  <div
    key="269270271272"
  >
     
    The Current Will You
     
  </div>
  <div
    key="273274275276277278279280281282283284"
  >
     
    He Skipped Off The Gunrest And Looked Gravely At His Watcher Gathering
     
  </div>
</ChapterComponent>
`;

exports[`shallow renders without crashing 1`] = `
<Fragment>
  <h2
    data-test="chaptercomponent-title"
  >
    just a simple title
  </h2>
  <div
    key="209210211212213214215216217218"
  >
     
    Moment A Little Trouble About Those White Corpuscles Silence All
     
  </div>
  <div
    key="219220221222223224225226227228229230231232"
  >
     
    He Peered Sideways Up And Gave A Long Slow Whistle Of Call Then Paused
     
  </div>
  <div
    key="233234235236237238239240241242243244"
  >
     
    Awhile In Rapt Attention His Even White Teeth Glistening Here And There
     
  </div>
  <div
    key="245246247248249250251252253"
  >
     
    With Gold Points Chrysostomos Two Strong Shrill Whistles Answered
     
  </div>
  <div
    key="254255256"
  >
     
    Through The Calm
     
  </div>
  <div
    key="257258259260261262263264265266267268"
  >
     
    Thanks Old Chap He Cried Briskly That Will Do Nicely Switch Off
     
  </div>
  <div
    key="269270271272"
  >
     
    The Current Will You
     
  </div>
  <div
    key="273274275276277278279280281282283284"
  >
     
    He Skipped Off The Gunrest And Looked Gravely At His Watcher Gathering
     
  </div>
</Fragment>
`;
